[    
    {        
        "character_id": 90000001,
        "character_name": "Bruce Wayne",
        "corporation_id": 92000001,
        "corporation_name": "Wayne Enterprise",
        "corporation_ticker": "WE",
        "alliance_id": 93000001,
        "alliance_name": "Justice League",
        "alliance_ticker": "JL"    
    },
    {        
        "character_id": 90000002,
        "character_name": "Robin",
        "corporation_id": 92000001,
        "corporation_name": "Wayne Enterprise",
        "corporation_ticker": "WE",
        "alliance_id": 93000001,
        "alliance_name": "Justice League",
        "alliance_ticker": "JL"    
    },
    {        
        "character_id": 90000003,
        "character_name": "Clark Kent",
        "corporation_id": 92000002,
        "corporation_name": "The Planet",
        "corporation_ticker": "",
        "alliance_id": 93000001,
        "alliance_name": "Justice League",
        "alliance_ticker": "JL"    
    },
    {  
        "character_id": 90000004,
        "character_name": "Peter Parker",
        "corporation_id": 92000002,
        "corporation_name": "Daily Bugle",
        "corporation_ticker": "DAB",
        "alliance_id": 93000002,
        "alliance_name": "The Avengers",
        "alliance_ticker": "XXX"  
    },
    {  
        "character_id": 90000005,
        "character_name": "Kara Danvers",
        "corporation_id": 92000003,
        "corporation_name": "CatCo Worldwide Media",
        "corporation_ticker": "CCO",
        "alliance_id": null,
        "alliance_name": null,
        "alliance_ticker": null
    }
]